A:\Wrk\ASpbLibs\ASpbLibsPublic\wwwroot\js\app-root.js
A:\Wrk\ASpbLibs\ASpbLibsPublic\wwwroot\js\app-root.js.map
A:\Wrk\ASpbLibs\ASpbLibsPublic\wwwroot\js\main.js
A:\Wrk\ASpbLibs\ASpbLibsPublic\wwwroot\js\main.js.map
A:\Wrk\ASpbLibs\ASpbLibsPublic\wwwroot\js\annotations\$context.js
A:\Wrk\ASpbLibs\ASpbLibsPublic\wwwroot\js\annotations\$context.js.map
A:\Wrk\ASpbLibs\ASpbLibsPublic\wwwroot\js\annotations\component.js
A:\Wrk\ASpbLibs\ASpbLibsPublic\wwwroot\js\annotations\component.js.map
A:\Wrk\ASpbLibs\ASpbLibsPublic\wwwroot\js\components\frame.js
A:\Wrk\ASpbLibs\ASpbLibsPublic\wwwroot\js\components\frame.js.map
A:\Wrk\ASpbLibs\ASpbLibsPublic\wwwroot\js\components\search.js
A:\Wrk\ASpbLibs\ASpbLibsPublic\wwwroot\js\components\search.js.map
