﻿{
  "iisSettings": {
    "windowsAuthentication": false,
    "anonymousAuthentication": true,
    
    "iisExpress": {
      "applicationUrl": "http://localhost:53693",
      "sslPort": 44392
    }
  },
  "profiles": {
    "IIS Express": {
      "commandName": "IISExpress",
      "launchUrl": "https://localhost:44392/Movies/Home",
      "launchBrowser": true,
      "environmentVariables": {
        "ASPNETCORE_ENVIRONMENT": "Development"
      }
    },
    "ASpbLibsPublic": {
      "commandName": "Project",
      "launchUrl": "https://localhost:5001/Movies/Home",
      "launchBrowser": true,
      "applicationUrl": "https://localhost:5001;http://localhost:5000",
      "environmentVariables": {
        "ASPNETCORE_ENVIRONMENT": "Development"
      }
    }
  }
}
