A:\Wrk\ASpbLibs\MVC\wwwroot\js\app-root.js
A:\Wrk\ASpbLibs\MVC\wwwroot\js\app-root.js.map
A:\Wrk\ASpbLibs\MVC\wwwroot\js\main.js
A:\Wrk\ASpbLibs\MVC\wwwroot\js\main.js.map
A:\Wrk\ASpbLibs\MVC\wwwroot\js\annotations\$context.js
A:\Wrk\ASpbLibs\MVC\wwwroot\js\annotations\$context.js.map
A:\Wrk\ASpbLibs\MVC\wwwroot\js\annotations\component.js
A:\Wrk\ASpbLibs\MVC\wwwroot\js\annotations\component.js.map
A:\Wrk\ASpbLibs\MVC\wwwroot\js\annotations\controller.js
A:\Wrk\ASpbLibs\MVC\wwwroot\js\annotations\controller.js.map
A:\Wrk\ASpbLibs\MVC\wwwroot\js\components\frame.js
A:\Wrk\ASpbLibs\MVC\wwwroot\js\components\frame.js.map
A:\Wrk\ASpbLibs\MVC\wwwroot\js\components\search.js
A:\Wrk\ASpbLibs\MVC\wwwroot\js\components\search.js.map
A:\Wrk\ASpbLibs\MVC\wwwroot\js\components\tabs.component.js
A:\Wrk\ASpbLibs\MVC\wwwroot\js\components\tabs.component.js.map
